[
    {"VODAFONE MAAP":"Anglia Ruskin University Higher Education Corporate","id":60849636},
    {"VODAFONE MAAP":"Autoglass","id":18392863},
    {"VODAFONE MAAP":"City Wonders","id":11300274},
    {"VODAFONE MAAP":"Hotel Cafe Royal","id":24175453},
    {"VODAFONE MAAP":"Insure & Go Insurance Services","id":22725166},
    {"VODAFONE MAAP":"iTalk Telecommunications","id":6962582},
    {"VODAFONE MAAP":"Simba Sleep","id":2059524},
    {"VODAFONE MAAP":"NewDay Cards","id":61072788},
    {"VODAFONE MAAP":"The Guild of Professional Beauty Therapists","id":76678583},
    {"VODAFONE MAAP":"TTT Moneycorp Limited","id":63128579},
    {"VODAFONE MAAP":"Avis Budget Europe","id":66458848},
    {"VODAFONE MAAP":"EDF Energy","id":26734178},
    {"VODAFONE MAAP":"Severn Trent Water","id":23296555},
    {"VODAFONE MAAP":"Virgin Atlantic Airways","id":74760319},
    {"VODAFONE MAAP":"Ageas Retail Limited","id":20841312},
    {"VODAFONE MAAP":"Aldermore Bank","id":87582374},
    {"VODAFONE MAAP":"Bibby F S Holdings","id":40691190},
    {"VODAFONE MAAP":"Bournemouth & Poole College","id":60017195},
    {"VODAFONE MAAP":"Boux Avenue","id":11730542},
    {"VODAFONE MAAP":"Brighthouse Group","id":32288710},
    {"VODAFONE MAAP":"Buy Sheds Direct","id":33841445},
    {"VODAFONE MAAP":"Cabot","id":42471191},
    {"VODAFONE MAAP":"Coleshill Retail","id":78718546},
    {"VODAFONE MAAP":"Evans Cycles Limited","id":14779501},
    {"VODAFONE MAAP":"Farrow & Ball Limited","id":42843760},
    {"VODAFONE MAAP":"FNZ UK","id":36229134},
    {"VODAFONE MAAP":"Foxtons","id":64337664},
    {"VODAFONE MAAP":"French Connection Limited","id":86455293},
    {"VODAFONE MAAP":"Funeral Services Limited","id":71705734},
    {"VODAFONE MAAP":"G Plan","id":17667605},
    {"VODAFONE MAAP":"J. P. Boden & Co.","id":10313727},
    {"VODAFONE MAAP":"Kate Spade","id":23764477},
    {"VODAFONE MAAP":"Keep Moat","id":68468339},
    {"VODAFONE MAAP":"Laya Healthcare Limited","id":91341582},
    {"VODAFONE MAAP":"London & Country Mortgages","id":56928521},
    {"VODAFONE MAAP":"Malvern Panalytical","id":71869231},
    {"VODAFONE MAAP":"MWUK T/A Alexandra","id":58027874},
    {"VODAFONE MAAP":"My Home Move Limited","id":4472563},
    {"VODAFONE MAAP":"UK Architectural Antiques","id":80554739},
    {"VODAFONE MAAP":"UK Open College Limited","id":39071509},
    {"VODAFONE MAAP":"Newham Council","id":44549514},
    {"VODAFONE MAAP":"News UK","id":75931016},
    {"VODAFONE MAAP":"Really Successful","id":24621328},
    {"VODAFONE MAAP":"Scottish Association of Citizens Advice Bureaux","id":74002233},
    {"VODAFONE MAAP":"Solicitors Regulation Authority","id":9467814},
    {"VODAFONE MAAP":"South Tyneside Homes","id":70003879},
    {"VODAFONE MAAP":"Sweaty Betty","id":41349199},
    {"VODAFONE MAAP":"Taylor Investments","id":89531109},
    {"VODAFONE MAAP":"The Guinness Partnership Limited","id":34565864},
    {"VODAFONE MAAP":"The National Deaf Children's Society","id":39572909},
    {"VODAFONE MAAP":"ThomasPink","id":17883950},
    {"VODAFONE MAAP":"Toast Womens Clothing","id":49462936},
    {"VODAFONE MAAP":"TUI Travel","id":11279817},
    {"VODAFONE MAAP":"Unipol Student Homes","id":56553434},
    {"VODAFONE MAAP":"United Utilities Group","id":33532066},
    {"VODAFONE MAAP":"Wey Education","id":65125424},
    {"VODAFONE MAAP":"XLN Telecom","id":34684904},
    {"VODAFONE MAAP":"Yopa Property Limited","id":23704399},
    {"VODAFONE MAAP":"Homeserve","id":44604318},
    {"VODAFONE MAAP":"Jet2Holidays Limited","id":24078034},
    {"VODAFONE MAAP":"Net-A-Porter","id":73583570},
    {"VODAFONE MAAP":"Travel Republic Limited","id":20610993},
    {"VODAFONE MAAP":"Cecilia Stevenson","id":69115684},
    {"VODAFONE MAAP":"Darlene Blundell","id":21215161},
    {"VODAFONE MAAP":"Fynn Montgomery","id":55373330},
    {"VODAFONE MAAP":"Gabrielle Tanner","id":51721500},
    {"VODAFONE MAAP":"Jules Levy","id":28125268},
    {"VODAFONE MAAP":"Kairo Pitts","id":32405797},
    {"VODAFONE MAAP":"Maiya Mathews","id":71967117},
    {"VODAFONE MAAP":"Ralph Gonzalez","id":89422320},
    {"VODAFONE MAAP":"Saad Garrett","id":32942075},
    {"VODAFONE MAAP":"Willa Bennett","id":56953001},
    {"VODAFONE MAAP":"Beatriz Bellintani","id":60853227},
    {"VODAFONE MAAP":"Carol Cohen","id":5907554},
    {"VODAFONE MAAP":"Dr Humaira Naeem","id":90627397},
    {"VODAFONE MAAP":"Kamran Ishaq","id":90155609},
    {"VODAFONE MAAP":"Max Corradi","id":63013791},
    {"VODAFONE MAAP":"Milton Mankoff","id":39480817},
    {"VODAFONE MAAP":"Muhammad Haroon","id":75651344},
    {"VODAFONE MAAP":"Sanya Joseph","id":88177615},
    {"VODAFONE MAAP":"Toka Pritchett","id":66826497},
    {"VODAFONE MAAP":"Cannon Europe","id":8616596},
    {"VODAFONE MAAP":"Coptrz Commercial Drone Experts","id":69213323},
    {"VODAFONE MAAP":"CreativeIT","id":49197114},
    {"VODAFONE MAAP":"Fine+Rare Wines","id":8503086},
    {"VODAFONE MAAP":"Freedom Finance","id":63642787},
    {"VODAFONE MAAP":"Freeze Debt","id":48520144},
    {"VODAFONE MAAP":"InnerPlace","id":36539227},
    {"VODAFONE MAAP":"Mark Bates ltd","id":67580066},
    {"VODAFONE MAAP":"Regent College London","id":91104476},
    {"VODAFONE MAAP":"RotaHub","id":43417417},
    {"VODAFONE MAAP":"SilentNight","id":47255430}
    ,{"VODAFONE MAAP":"Alco Digital","id":37347769},
    {"VODAFONE MAAP":"Arcturus Security","id":52132676},
    {"VODAFONE MAAP":"Assetz SME Capital Limited","id":28997070},
    {"VODAFONE MAAP":"Business Growth Hub","id":78177724},
    {"VODAFONE MAAP":"Door Store","id":29494860},
    {"VODAFONE MAAP":"EventsForce","id":12813973},
    {"VODAFONE MAAP":"Fosterline","id":7745732},
    {"VODAFONE MAAP":"General Medical Council","id":66387357},
    {"VODAFONE MAAP":"Giraffe UK","id":34787224},
    {"VODAFONE MAAP":"IMEI Pro Unlocks","id":30532388},
    {"VODAFONE MAAP":"Lochness Motorhomes","id":3660426},
    {"VODAFONE MAAP":"Lockhart Catering Equipment","id":34896934},
    {"VODAFONE MAAP":"Qdos Sound","id":39568132},
    {"VODAFONE MAAP":"RTW Skin","id":62055081},
    {"VODAFONE MAAP":"SeventySeven Wealth Management Expert","id":28477469},
    {"VODAFONE MAAP":"Sinspeed","id":69685640},
    {"VODAFONE MAAP":"SpaDental Group","id":46458106},
    {"VODAFONE MAAP":"Stelrad Radiator Group","id":35620532},
    {"VODAFONE MAAP":"Sunspel","id":80163743},
    {"VODAFONE MAAP":"TLJ Security Systems","id":635065},
    {"VODAFONE MAAP":"Urban Roof Gardens","id":49855335},
    {"VODAFONE MAAP":"Andrews Sykes Group","id":27116539},
    {"VODAFONE MAAP":"Binks Estate Agents","id":56655242},
    {"VODAFONE MAAP":"Bower Retirement Services","id":20194684},
    {"VODAFONE MAAP":"Caravan Guard","id":70638855},
    {"VODAFONE MAAP":"Cater-Kwik","id":27489546},
    {"VODAFONE MAAP":"Essential Nails","id":72356100},
    {"VODAFONE MAAP":"Exodus Travels Limited","id":44497183},
    {"VODAFONE MAAP":"Festive Lights","id":86634493},
    {"VODAFONE MAAP":"Focus on Training","id":13333151},
    {"VODAFONE MAAP":"Hack Up","id":59078466},
    {"VODAFONE MAAP":"Harwin PLC","id":60085899},
    {"VODAFONE MAAP":"Insure The Box","id":65208756},
    {"VODAFONE MAAP":"Irwinitchell Solicitors","id":81311188},
    {"VODAFONE MAAP":"National Accident Helpline","id":36968323},
    {"VODAFONE MAAP":"Nucleus Financial Group","id":37007926},
    {"VODAFONE MAAP":"ONE Freelance Limited","id":17534517},
    {"VODAFONE MAAP":"Parasol Limited","id":2991104},
    {"VODAFONE MAAP":"Phew Internet","id":58996569},
    {"VODAFONE MAAP":"Topdeck Travel","id":11976639},
    {"VODAFONE MAAP":"Scotts Travel Management","id":19603499},
    {"VODAFONE MAAP":"Sweet Squared","id":60970491},
    {"VODAFONE MAAP":"The Serviced Apartment Company","id":42393181},
    {"VODAFONE MAAP":"Vonage UK","id":64603915},
    {"VODAFONE MAAP":"Wellfound","id":1464013},
    {"VODAFONE MAAP":"Adviza","id":54997201},
    {"VODAFONE MAAP":"Bright Horizon","id":78600761},
    {"VODAFONE MAAP":"AV Parts Master Ltd","id":87797649},
    {"VODAFONE MAAP":"Britannia Driving Ltd","id":6447197},
    {"VODAFONE MAAP":"Brook Food Processing Equiptment LTD","id":59213541},
    {"VODAFONE MAAP":"BTech International Ltd","id":75261927},
    {"VODAFONE MAAP":"Camps International","id":34810471},
    {"VODAFONE MAAP":"Carousel","id":58955128},
    {"VODAFONE MAAP":"Castle Doors Ltd","id":36093739},
    {"VODAFONE MAAP":"CJK Packaging Ltd","id":31026783},
    {"VODAFONE MAAP":"CMG","id":69256532},
    {"VODAFONE MAAP":"Cutweltools","id":69493096},
    {"VODAFONE MAAP":"Direct Office Supply","id":590720},
    {"VODAFONE MAAP":"EveryCloud Tech","id":45801442},
    {"VODAFONE MAAP":"Fred. Olsen Cruise Lines","id":38181681},
    {"VODAFONE MAAP":"Hotblack Desiato","id":76401782},
    {"VODAFONE MAAP":"Jesmond Dene Hotel","id":53866018},
    {"VODAFONE MAAP":"Kitsons LLP","id":43766061},
    {"VODAFONE MAAP":"Memiah Ltd","id":43564968},
    {"VODAFONE MAAP":"Newnet Technologies","id":37014101},
    {"VODAFONE MAAP":"Rapid Electronics Ltd.","id": 66449020},
    {"VODAFONE MAAP":"Queen Mary University of London","id":57385237},
    {"VODAFONE MAAP":"Oxfordshire County Council Early Intervention Serv","id":24520442},
    {"VODAFONE MAAP":"R3 Repairs Limited","id":22704226},
    {"VODAFONE MAAP":"Ready Steady Store","id":26964342},
    {"VODAFONE MAAP":"Royal Holloway, University of London","id":70982432},
    {"VODAFONE MAAP":"Royal Holloway, University of London Library","id":46374509},
    {"VODAFONE MAAP":"Sound Reduction Systems","id":49620649},
    {"VODAFONE MAAP":"The Lighting Superstore","id":52326491}

] 